{
  "channel": "${SLACK_CHANNEL_ID}",
  "attachments": [
    {
      "color": "${SLACK_ATTACHMENTS_COLOR}",
      "fallback": "Automation Test Result for ${SERVICE_NAME} : ${EMOJI} ${AUTOMATION_PIPELINE_STATUS} ${AUTOMATION_PIPELINE_MESSAGE}",
      "blocks": [
        {
          "type": "section",
          "text": {
            "type": "mrkdwn",
            "text": "*Environment*:\n${TARGET}"
          }
        },
        {
          "type": "section",
          "fields": [
            {
              "type": "mrkdwn",
              "text": "*Service:*\n<${BB_REPO_URL}|${SERVICE_NAME}>"
            },
            {
              "type": "mrkdwn",
              "text": "*Status:*\n_${EMOJI} ${AUTOMATION_PIPELINE_STATUS} ${AUTOMATION_PIPELINE_MESSAGE}_"
            },
            {
              "type": "mrkdwn",
              "text": "*Automation Project:*\n${AUTOMATION_PROJECT}"
            },
            {
              "type": "mrkdwn",
              "text": "*Pipeline:*\n${AUTOMATION_PIPELINE_URL}"
            },
            {
              "type": "mrkdwn",
              "text": "*Report:*\n${AUTOMATION_TEST_REPORT_URL}"
            },
            {
              "type": "mrkdwn",
              "text": "*Trigger By:*\n_${AUTOMATION_TEST_TRIGGER}_"
            },
            {
              "type": "mrkdwn",
              "text": "*Commit By:*\n@${SLACK_USERNAME}"
            }
          ]
        },
        {
          "type": "section",
          "text": {
            "type": "mrkdwn",
            "text": "*Commit Message*:\n${AUTOMATION_COMMIT_MESSAGE}"
          }
        }
      ]
    }
  ]
}
